<svg width="155" height="34" viewBox="0 0 155 34" fill="none" xmlns="http://www.w3.org/2000/svg">
<g clip-path="url(#clip0_107_8781)">
<path d="M38.1217 33.483L1.67578 31.4161V3.30698L15.919 1.6535L47.7569 0.413391L79.5947 3.30698V31.4161L51.1082 33.483H38.1217Z" fill="#0C7489"/>
<path d="M95.6167 18.8634C95.6358 18.8575 95.6537 18.8528 95.6729 18.8469C96.2765 18.6641 96.7702 18.3833 97.1395 18.0106C97.5125 17.6344 97.773 17.1685 97.9141 16.6259C98.0408 16.1376 98.1053 15.575 98.1053 14.9546V13.5569C98.1053 12.9364 98.0408 12.375 97.9141 11.8867C97.7719 11.3441 97.5113 10.8782 97.1395 10.502C96.7702 10.1293 96.2765 9.84854 95.6729 9.66454C95.1087 9.49469 94.3975 9.40741 93.5583 9.40741H87.7969V24.6134H90.7816V19.1028H92.5292L95.1039 24.2702L95.2748 24.6134H98.5787L98.1185 23.7205L95.6167 18.8622V18.8634ZM90.7816 12.1356H93.5583C93.9325 12.1356 94.2361 12.1651 94.4596 12.224C94.6317 12.27 94.7656 12.3373 94.8577 12.4234C94.9377 12.5 94.9987 12.618 95.0381 12.7749C95.0931 12.999 95.1218 13.2891 95.1218 13.6371V14.8743C95.1218 15.2223 95.0943 15.5125 95.0381 15.7377C94.9999 15.8934 94.9389 16.0126 94.8577 16.0892C94.7668 16.1753 94.6329 16.2426 94.4608 16.2886C94.2385 16.3475 93.9349 16.377 93.5595 16.377H90.7828V12.1356H90.7816Z" fill="white"/>
<path d="M102.194 9.40985H101.572V10.0244V23.999V24.6135H102.194H109.822H110.445V23.999V22.5022V21.8877H109.822H104.557V18.3645H109.417H110.04V17.75V16.2533V15.6387H109.417H104.557V12.1357H109.822H110.445V11.5211V10.0244V9.40985H109.822H102.194Z" fill="white"/>
<path d="M122.677 12.1357V11.5212V10.0244V9.40991H122.054H113.738H113.115V10.0244V11.5212V12.1357H113.738H116.393V23.999V24.6135H117.016H118.776H119.399V23.999V12.1357H122.054H122.677Z" fill="white"/>
<path d="M131.169 9.83683L131.03 9.40985H127.876L127.737 9.83683L123.205 23.8126L122.945 24.6147H126.053L126.192 24.1877L127.308 20.7412H131.599L132.716 24.1877L132.855 24.6147H135.962L135.703 23.8126L131.17 9.83683H131.169ZM130.754 18.0142H128.15L129.445 13.9969L130.753 18.0142H130.754Z" fill="white"/>
<path d="M138.781 9.40985H138.158V10.0244V23.999V24.6135H138.781H140.521H141.144V23.999V10.0244V9.40985H140.521H138.781Z" fill="white"/>
<path d="M154.378 9.40985H152.637H152.014V10.0244V18.052L147.335 9.72595L147.157 9.40985H146.79H145.05H144.428V10.0244V23.999V24.6135H145.05H146.79H147.412V23.999V15.956L152.093 24.2974L152.27 24.6135H152.637H154.378H155V23.999V10.0244V9.40985H154.378Z" fill="white"/>
<path d="M40.243 2.0239C52.9385 2.0239 65.7775 2.5936 78.4348 3.71883V30.2833C65.7775 31.4074 52.9373 31.9783 40.243 31.9783C27.5486 31.9783 14.7085 31.4086 2.05118 30.2833V3.71765C14.7085 2.5936 27.5486 2.02272 40.243 2.02272M40.243 -0.00128174C26.8135 -0.000102248 13.384 0.623848 0 1.87293V32.128C13.384 33.3759 26.8135 34.0011 40.243 34.0011C53.6724 34.0011 67.1019 33.3771 80.4859 32.128V1.87293C67.1019 0.623848 53.6724 -0.000102248 40.243 -0.000102248V-0.00128174Z" fill="#1097B3"/>
<path d="M19.1123 23.8863C18.5624 24.4076 17.8799 24.6247 16.3391 24.6247H11.6283C10.1091 24.6247 9.40504 24.4076 8.85519 23.8863C7.97424 23.0606 7.33594 21.6712 7.33594 17.0228C7.33594 12.3745 7.97424 10.9626 8.85519 10.1594C9.40504 9.63805 10.1103 9.42102 11.6283 9.42102H16.3391C17.8799 9.42102 18.5624 9.63805 19.1123 10.1594C19.9263 10.9202 20.3004 12.0713 20.3446 14.9163H16.9105C16.8447 13.0267 16.6463 12.6139 16.4706 12.4405C16.3164 12.2884 16.118 12.2235 15.4139 12.2235H12.5523C11.8483 12.2235 11.6499 12.2884 11.4957 12.4405C11.2972 12.6139 11.0116 13.1576 11.0116 17.024C11.0116 20.8904 11.2972 21.4117 11.4957 21.6075C11.6499 21.7373 11.8483 21.8033 12.5523 21.8033H15.4139C16.118 21.8245 16.3164 21.7384 16.4706 21.6075C16.6463 21.4341 16.8447 21.065 16.9105 18.9572H20.3662C20.2777 22.0203 19.9263 23.1279 19.1111 23.8875L19.1123 23.8863Z" fill="white"/>
<path d="M27.3852 21.822H33.1826V24.6244H23.7969V9.41962H27.3852V21.822Z" fill="white"/>
<path d="M36.3906 24.6244V9.41962H40.0005V24.6244H36.3906Z" fill="white"/>
<path d="M55.4716 23.886C54.9218 24.4074 54.2393 24.6244 52.6985 24.6244H47.9877C46.4685 24.6244 45.7644 24.4074 45.2146 23.886C44.3336 23.0604 43.6953 21.671 43.6953 17.0226C43.6953 12.3742 44.3336 10.9624 45.2146 10.1591C45.7644 9.6378 46.4697 9.42078 47.9877 9.42078H52.6985C54.2393 9.42078 54.9218 9.6378 55.4716 10.1591C56.2857 10.9199 56.6598 12.0711 56.704 14.916H53.2699C53.2041 13.0265 53.0057 12.6137 52.83 12.4403C52.6758 12.2881 52.4774 12.2232 51.7733 12.2232H48.9117C48.2077 12.2232 48.0092 12.2881 47.855 12.4403C47.6566 12.6137 47.3709 13.1574 47.3709 17.0238C47.3709 20.8901 47.6566 21.4115 47.855 21.6073C48.0092 21.737 48.2077 21.8031 48.9117 21.8031H51.7733C52.4774 21.8243 52.6758 21.7382 52.83 21.6073C53.0057 21.4339 53.2041 21.0647 53.2699 18.957H56.7255C56.6371 22.0201 56.2857 23.1276 55.4704 23.8872L55.4716 23.886Z" fill="white"/>
<path d="M73.3399 9.41962L67.6167 16.5662L73.5826 24.6244H69.3559L64.7336 18.1738H63.7427V24.6244H60.1543V9.41962H63.7427V15.4798H64.6894L69.3559 9.41962H73.3399Z" fill="white"/>
</g>
<defs>
<clipPath id="clip0_107_8781">
<rect width="155" height="34" fill="white"/>
</clipPath>
</defs>
</svg>
